{
  "prepare_queue": {
    "installed": [],
    "uninstalled": []
  },
  "config_munge": {
    "files": {
      "config.xml": {
        "parents": {
          "/*": [
            {
              "xml": "<feature name=\"FirebasePlugin\"><param name=\"ios-package\" value=\"FirebasePlugin\" /><param name=\"onload\" value=\"true\" /></feature>",
              "count": 1
            }
          ]
        }
      },
      "*/Entitlements-Debug.plist": {
        "parents": {
          "aps-environment": [
            {
              "xml": "<string>development</string>",
              "count": 1
            }
          ]
        }
      },
      "*/Entitlements-Release.plist": {
        "parents": {
          "aps-environment": [
            {
              "xml": "<string>production</string>",
              "count": 1
            }
          ]
        }
      },
      "*-Info.plist": {
        "parents": {
          "UIBackgroundModes": [
            {
              "xml": "<array><string>remote-notification</string></array>",
              "count": 1
            }
          ]
        }
      }
    }
  },
  "installed_plugins": {
    "cordova-plugin-whitelist": {
      "PACKAGE_NAME": "$(PRODUCT_BUNDLE_IDENTIFIER)"
    },
    "cordova-plugin-androidx": {
      "PACKAGE_NAME": "$(PRODUCT_BUNDLE_IDENTIFIER)"
    },
    "cordova-plugin-androidx-adapter": {
      "PACKAGE_NAME": "$(PRODUCT_BUNDLE_IDENTIFIER)"
    },
    "cordova-plugin-firebasex": {
      "FIREBASE_ANALYTICS_COLLECTION_ENABLED": "true",
      "FIREBASE_PERFORMANCE_COLLECTION_ENABLED": "true",
      "FIREBASE_CRASHLYTICS_COLLECTION_ENABLED": "true",
      "PACKAGE_NAME": "$(PRODUCT_BUNDLE_IDENTIFIER)"
    }
  },
  "dependent_plugins": {},
  "modules": [
    {
      "id": "cordova-plugin-firebasex.FirebasePlugin",
      "file": "plugins/cordova-plugin-firebasex/www/firebase.js",
      "pluginId": "cordova-plugin-firebasex",
      "clobbers": [
        "FirebasePlugin"
      ]
    }
  ],
  "plugin_metadata": {
    "cordova-plugin-whitelist": "1.3.4",
    "cordova-plugin-androidx": "1.0.2",
    "cordova-plugin-androidx-adapter": "1.1.0",
    "cordova-plugin-firebasex": "7.0.1"
  }
}
